{
    "prepare_queue": {
        "installed": [],
        "uninstalled": []
    },
    "config_munge": {
        "files": {}
    },
    "installed_plugins": {
        "com.evothings.ble": {
            "PACKAGE_NAME": "no.helsedir.samveis"
        },
        "cordova-plugin-inappbrowser": {
            "PACKAGE_NAME": "no.helsedir.samveis"
        },
        "cordova-plugin-whitelist": {
            "PACKAGE_NAME": "no.helsedir.samveis"
        }
    },
    "dependent_plugins": {}
}