{
    "com.evothings.ble": {
        "source": {
            "type": "git",
            "url": "https://github.com/evothings/cordova-ble.git",
            "subdir": "."
        }
    },
    "cordova-plugin-ble": {
        "source": {
            "type": "registry",
            "id": "cordova-plugin-ble"
        },
        "is_top_level": true,
        "variables": {}
    },
    "cordova-plugin-inappbrowser": {
        "source": {
            "type": "git",
            "url": "https://git-wip-us.apache.org/repos/asf/cordova-plugin-inappbrowser.git",
            "subdir": "."
        }
    },
    "cordova-plugin-whitelist": {
        "source": {
            "type": "registry",
            "id": "cordova-plugin-whitelist"
        },
        "is_top_level": true,
        "variables": {}
    }
}