{
    "prepare_queue": {
        "installed": [],
        "uninstalled": []
    },
    "config_munge": {
        "files": {}
    },
    "installed_plugins": {
        "com.evothings.ble": {
            "PACKAGE_NAME": "no.helsedir.samveis"
        },
        "cordova-plugin-inappbrowser": {
            "PACKAGE_NAME": "no.helsedir.samveis"
        },
        "cordova-plugin-whitelist": {
            "PACKAGE_NAME": "no.helsedir.samveis"
        }
    },
    "dependent_plugins": {},
    "modules": [
        {
            "file": "plugins/com.evothings.ble/ble.js",
            "id": "com.evothings.ble.BLE",
            "pluginId": "com.evothings.ble",
            "clobbers": [
                "evothings.ble"
            ]
        },
        {
            "file": "plugins/cordova-plugin-inappbrowser/www/inappbrowser.js",
            "id": "cordova-plugin-inappbrowser.inappbrowser",
            "pluginId": "cordova-plugin-inappbrowser",
            "clobbers": [
                "cordova.InAppBrowser.open",
                "window.open"
            ]
        },
        {
            "file": "plugins/cordova-plugin-inappbrowser/src/browser/InAppBrowserProxy.js",
            "id": "cordova-plugin-inappbrowser.InAppBrowserProxy",
            "pluginId": "cordova-plugin-inappbrowser",
            "merges": [
                ""
            ]
        }
    ],
    "plugin_metadata": {
        "com.evothings.ble": "0.0.1",
        "cordova-plugin-inappbrowser": "1.0.2-dev",
        "cordova-plugin-whitelist": "1.2.1"
    }
}